efinity_project/la1_waveform.vcd
#0 $dumpon
$date today $end
$timescale 1 ns $end
$scope module top $end
$var wire 1 0 u_frame_buffer_ch0/u_ddr_tx_buffer/u_data_tx/de_o $end
$var wire 1 1 u_frame_buffer_ch0/u_ddr_tx_buffer/u_data_tx/vs_o $end
$var wire 16 2 u_frame_buffer_ch0/u_ddr_tx_buffer/u_data_tx/fifo_wr_data $end
$var wire 1 3 u_frame_buffer_ch0/u_ddr_tx_buffer/u_data_tx/hs_o $end
$var wire 1 4 u_frame_buffer_ch0/u_ddr_tx_buffer/rd_shift_en $end
$var wire 8 5 u_frame_buffer_ch0/u_ddr_tx_buffer/rd_shift $end
$var wire 1 6 u_frame_buffer_ch0/u_ddr_tx_buffer/rd_shift_period $end
$var wire 16 7 u_frame_buffer_ch0/u_ddr_tx_buffer/tx_vin $end
$upscope $end
$enddefinitions $end
#0
$dumpvars
10
01
b1111111100000000 2
03
14
b00000010 5
16
b1111111100000000 7
$end
#1
b0000000000000000 2
b00000100 5
b0000000000000000 7
#2
b00001000 5
#3
b00010000 5
#4
b00100000 5
#5
b01000000 5
#6
04
b10000000 5
#7
14
b00000001 5
#8
b1111111100000000 2
b00000010 5
b1111111100000000 7
#9
b0000000000000000 2
b00000100 5
b0000000000000000 7
#10
b00001000 5
#11
b00010000 5
#12
b00100000 5
#13
b01000000 5
#14
04
b10000000 5
#15
14
b00000001 5
#16
b1111111100000000 2
b00000010 5
b1111111100000000 7
#17
b0000000000000000 2
b00000100 5
b0000000000000000 7
#18
b00001000 5
#19
b00010000 5
#20
b00100000 5
#21
b01000000 5
#22
04
b10000000 5
#23
14
b00000001 5
#24
b1111111100000000 2
b00000010 5
b1111111100000000 7
#25
b0000000000000000 2
b00000100 5
b0000000000000000 7
#26
b00001000 5
#27
b00010000 5
#28
b00100000 5
#29
b01000000 5
#30
04
b10000000 5
#31
14
b00000001 5
#32
b1111111100000000 2
b00000010 5
b1111111100000000 7
#33
b0000000000000000 2
b00000100 5
b0000000000000000 7
#34
b00001000 5
#35
b00010000 5
#36
b00100000 5
#37
b01000000 5
#38
04
b10000000 5
#39
14
b00000001 5
#40
b1111111100000000 2
b00000010 5
b1111111100000000 7
#41
b0000000000000000 2
b00000100 5
b0000000000000000 7
#42
b00001000 5
#43
b00010000 5
#44
b00100000 5
#45
b01000000 5
#46
04
b10000000 5
#47
14
b00000001 5
#48
b1111111100000000 2
b00000010 5
b1111111100000000 7
#49
b0000000000000000 2
b00000100 5
b0000000000000000 7
#50
b00001000 5
#51
b00010000 5
#52
b00100000 5
#53
b01000000 5
#54
04
b10000000 5
#55
14
b00000001 5
#56
b1111111100000000 2
b00000010 5
b1111111100000000 7
#57
b0000000000000000 2
b00000100 5
b0000000000000000 7
#58
b00001000 5
#59
b00010000 5
#60
b00100000 5
#61
b01000000 5
#62
04
b10000000 5
#63
14
b00000001 5
#64
b1111111100000000 2
b00000010 5
b1111111100000000 7
#65
b0000000000000000 2
b00000100 5
b0000000000000000 7
#66
b00001000 5
#67
b00010000 5
#68
b00100000 5
#69
b01000000 5
#70
04
b10000000 5
#71
14
b00000001 5
#72
b1111111100000000 2
b00000010 5
b1111111100000000 7
#73
b0000000000000000 2
b00000100 5
b0000000000000000 7
#74
b00001000 5
#75
b00010000 5
#76
b00100000 5
#77
b01000000 5
#78
04
b10000000 5
#79
14
b00000001 5
#80
b1111111100000000 2
b00000010 5
b1111111100000000 7
#81
b0000000000000000 2
b00000100 5
b0000000000000000 7
#82
b00001000 5
#83
b00010000 5
#84
b00100000 5
#85
b01000000 5
#86
04
b10000000 5
#87
14
b00000001 5
#88
b1111111100000000 2
b00000010 5
b1111111100000000 7
#89
b0000000000000000 2
b00000100 5
b0000000000000000 7
#90
b00001000 5
#91
b00010000 5
#92
b00100000 5
#93
b01000000 5
#94
04
b10000000 5
#95
14
b00000001 5
#96
b1111111100000000 2
b00000010 5
b1111111100000000 7
#97
b0000000000000000 2
b00000100 5
b0000000000000000 7
#98
b00001000 5
#99
b00010000 5
#100
b00100000 5
#101
b01000000 5
#102
04
b10000000 5
#103
14
b00000001 5
#104
b1111111100000000 2
b00000010 5
b1111111100000000 7
#105
b0000000000000000 2
b00000100 5
b0000000000000000 7
#106
b00001000 5
#107
b00010000 5
#108
b00100000 5
#109
b01000000 5
#110
04
b10000000 5
#111
14
b00000001 5
#112
b1111111100000000 2
b00000010 5
b1111111100000000 7
#113
b0000000000000000 2
b00000100 5
b0000000000000000 7
#114
b00001000 5
#115
b00010000 5
#116
b00100000 5
#117
b01000000 5
#118
04
b10000000 5
#119
14
b00000001 5
#120
b1111111100000000 2
b00000010 5
b1111111100000000 7
#121
b0000000000000000 2
b00000100 5
b0000000000000000 7
#122
b00001000 5
#123
b00010000 5
#124
b00100000 5
#125
b01000000 5
#126
04
b10000000 5
#127
14
b00000001 5
#128
b1111111100000000 2
b00000010 5
b1111111100000000 7
#129
b0000000000000000 2
b00000100 5
b0000000000000000 7
#130
b00001000 5
#131
b00010000 5
#132
b00100000 5
#133
b01000000 5
#134
04
b10000000 5
#135
14
b00000001 5
#136
b1111111100000000 2
b00000010 5
b1111111100000000 7
#137
b0000000000000000 2
b00000100 5
b0000000000000000 7
#138
b00001000 5
#139
b00010000 5
#140
b00100000 5
#141
b01000000 5
#142
04
b10000000 5
#143
14
b00000001 5
#144
b1111111100000000 2
b00000010 5
b1111111100000000 7
#145
b0000000000000000 2
b00000100 5
b0000000000000000 7
#146
b00001000 5
#147
b00010000 5
#148
b00100000 5
#149
b01000000 5
#150
04
b10000000 5
#151
14
b00000001 5
#152
b1111111100000000 2
b00000010 5
b1111111100000000 7
#153
b0000000000000000 2
b00000100 5
b0000000000000000 7
#154
b00001000 5
#155
b00010000 5
#156
b00100000 5
#157
b01000000 5
#158
04
b10000000 5
#159
14
b00000001 5
#160
b1111111100000000 2
b00000010 5
b1111111100000000 7
#161
b0000000000000000 2
b00000100 5
b0000000000000000 7
#162
b00001000 5
#163
b00010000 5
#164
b00100000 5
#165
b01000000 5
#166
04
b10000000 5
#167
14
b00000001 5
#168
b1111111100000000 2
b00000010 5
b1111111100000000 7
#169
b0000000000000000 2
b00000100 5
b0000000000000000 7
#170
b00001000 5
#171
b00010000 5
#172
b00100000 5
#173
b01000000 5
#174
04
b10000000 5
#175
14
b00000001 5
#176
b1111111100000000 2
b00000010 5
b1111111100000000 7
#177
b0000000000000000 2
b00000100 5
b0000000000000000 7
#178
b00001000 5
#179
b00010000 5
#180
b00100000 5
#181
b01000000 5
#182
04
b10000000 5
#183
14
b00000001 5
#184
b1111111100000000 2
b00000010 5
b1111111100000000 7
#185
b0000000000000000 2
b00000100 5
b0000000000000000 7
#186
b00001000 5
#187
b00010000 5
#188
b00100000 5
#189
b01000000 5
#190
04
b10000000 5
#191
14
b00000001 5
#192
b1111111100000000 2
b00000010 5
b1111111100000000 7
#193
b0000000000000000 2
b00000100 5
b0000000000000000 7
#194
b00001000 5
#195
b00010000 5
#196
b00100000 5
#197
b01000000 5
#198
04
b10000000 5
#199
14
b00000001 5
#200
b1111111100000000 2
b00000010 5
b1111111100000000 7
#201
b0000000000000000 2
b00000100 5
b0000000000000000 7
#202
b00001000 5
#203
b00010000 5
#204
b00100000 5
#205
b01000000 5
#206
04
b10000000 5
#207
14
b00000001 5
#208
b1111111100000000 2
b00000010 5
b1111111100000000 7
#209
b0000000000000000 2
b00000100 5
b0000000000000000 7
#210
b00001000 5
#211
b00010000 5
#212
b00100000 5
#213
b01000000 5
#214
04
b10000000 5
#215
14
b00000001 5
#216
b1111111100000000 2
b00000010 5
b1111111100000000 7
#217
b0000000000000000 2
b00000100 5
b0000000000000000 7
#218
b00001000 5
#219
b00010000 5
#220
b00100000 5
#221
b01000000 5
#222
04
b10000000 5
#223
14
b00000001 5
#224
b1111111100000000 2
b00000010 5
b1111111100000000 7
#225
b0000000000000000 2
b00000100 5
b0000000000000000 7
#226
b00001000 5
#227
b00010000 5
#228
b00100000 5
#229
b01000000 5
#230
04
b10000000 5
#231
14
b00000001 5
#232
b1111111100000000 2
b00000010 5
b1111111100000000 7
#233
b0000000000000000 2
b00000100 5
b0000000000000000 7
#234
b00001000 5
#235
b00010000 5
#236
b00100000 5
#237
b01000000 5
#238
04
b10000000 5
#239
14
b00000001 5
#240
b1111111100000000 2
b00000010 5
b1111111100000000 7
#241
b0000000000000000 2
b00000100 5
b0000000000000000 7
#242
b00001000 5
#243
b00010000 5
#244
b00100000 5
#245
b01000000 5
#246
04
b10000000 5
#247
14
b00000001 5
#248
b1111111100000000 2
b00000010 5
b1111111100000000 7
#249
b0000000000000000 2
b00000100 5
b0000000000000000 7
#250
b00001000 5
#251
b00010000 5
#252
b00100000 5
#253
b01000000 5
#254
04
b10000000 5
#255
14
b00000001 5
#256
b1111111100000000 2
b00000010 5
b1111111100000000 7
#257
b0000000000000000 2
b00000100 5
b0000000000000000 7
#258
b00001000 5
#259
b00010000 5
#260
b00100000 5
#261
b01000000 5
#262
04
b10000000 5
#263
14
b00000001 5
#264
b1111111100000000 2
b00000010 5
b1111111100000000 7
#265
b0000000000000000 2
b00000100 5
b0000000000000000 7
#266
b00001000 5
#267
b00010000 5
#268
b00100000 5
#269
b01000000 5
#270
04
b10000000 5
#271
14
b00000001 5
#272
b1111111100000000 2
b00000010 5
b1111111100000000 7
#273
b0000000000000000 2
b00000100 5
b0000000000000000 7
#274
b00001000 5
#275
b00010000 5
#276
b00100000 5
#277
b01000000 5
#278
04
b10000000 5
#279
14
b00000001 5
#280
b1111111100000000 2
b00000010 5
b1111111100000000 7
#281
b0000000000000000 2
b00000100 5
b0000000000000000 7
#282
b00001000 5
#283
b00010000 5
#284
b00100000 5
#285
b01000000 5
#286
04
b10000000 5
#287
14
b00000001 5
#288
b1111111100000000 2
b00000010 5
b1111111100000000 7
#289
b0000000000000000 2
b00000100 5
b0000000000000000 7
#290
b00001000 5
#291
b00010000 5
#292
b00100000 5
#293
b01000000 5
#294
04
b10000000 5
#295
14
b00000001 5
#296
b1111111100000000 2
b00000010 5
b1111111100000000 7
#297
b0000000000000000 2
b00000100 5
b0000000000000000 7
#298
b00001000 5
#299
b00010000 5
#300
b00100000 5
#301
b01000000 5
#302
04
b10000000 5
#303
14
b00000001 5
#304
b1111111100000000 2
b00000010 5
b1111111100000000 7
#305
b0000000000000000 2
b00000100 5
b0000000000000000 7
#306
b00001000 5
#307
b00010000 5
#308
b00100000 5
#309
b01000000 5
#310
04
b10000000 5
#311
14
b00000001 5
#312
b1111111100000000 2
b00000010 5
b1111111100000000 7
#313
b0000000000000000 2
b00000100 5
b0000000000000000 7
#314
b00001000 5
#315
b00010000 5
#316
b00100000 5
#317
b01000000 5
#318
04
b10000000 5
#319
14
b00000001 5
#320
b1111111100000000 2
b00000010 5
b1111111100000000 7
#321
b0000000000000000 2
b00000100 5
b0000000000000000 7
#322
b00001000 5
#323
b00010000 5
#324
b00100000 5
#325
b01000000 5
#326
04
b10000000 5
#327
14
b00000001 5
#328
b1111111100000000 2
b00000010 5
b1111111100000000 7
#329
b0000000000000000 2
b00000100 5
b0000000000000000 7
#330
b00001000 5
#331
b00010000 5
#332
b00100000 5
#333
b01000000 5
#334
04
b10000000 5
#335
14
b00000001 5
#336
b1111111100000000 2
b00000010 5
b1111111100000000 7
#337
b0000000000000000 2
b00000100 5
b0000000000000000 7
#338
b00001000 5
#339
b00010000 5
#340
b00100000 5
#341
b01000000 5
#342
04
b10000000 5
#343
14
b00000001 5
#344
b1111111100000000 2
b00000010 5
b1111111100000000 7
#345
b0000000000000000 2
b00000100 5
b0000000000000000 7
#346
b00001000 5
#347
b00010000 5
#348
b00100000 5
#349
b01000000 5
#350
04
b10000000 5
#351
14
b00000001 5
#352
b1111111100000000 2
b00000010 5
b1111111100000000 7
#353
b0000000000000000 2
b00000100 5
b0000000000000000 7
#354
b00001000 5
#355
b00010000 5
#356
b00100000 5
#357
b01000000 5
#358
04
b10000000 5
#359
14
b00000001 5
#360
b1111111100000000 2
b00000010 5
b1111111100000000 7
#361
b0000000000000000 2
b00000100 5
b0000000000000000 7
#362
b00001000 5
#363
b00010000 5
#364
b00100000 5
#365
b01000000 5
#366
04
b10000000 5
#367
14
b00000001 5
#368
b1111111100000000 2
b00000010 5
b1111111100000000 7
#369
b0000000000000000 2
b00000100 5
b0000000000000000 7
#370
b00001000 5
#371
b00010000 5
#372
b00100000 5
#373
b01000000 5
#374
04
b10000000 5
#375
14
b00000001 5
#376
b1111111100000000 2
b00000010 5
b1111111100000000 7
#377
b0000000000000000 2
b00000100 5
b0000000000000000 7
#378
b00001000 5
#379
b00010000 5
#380
b00100000 5
#381
b01000000 5
#382
04
b10000000 5
#383
14
b00000001 5
#384
b1111111100000000 2
b00000010 5
b1111111100000000 7
#385
b0000000000000000 2
b00000100 5
b0000000000000000 7
#386
b00001000 5
#387
b00010000 5
#388
b00100000 5
#389
b01000000 5
#390
04
b10000000 5
#391
14
b00000001 5
#392
b1111111100000000 2
b00000010 5
b1111111100000000 7
#393
b0000000000000000 2
b00000100 5
b0000000000000000 7
#394
b00001000 5
#395
b00010000 5
#396
b00100000 5
#397
b01000000 5
#398
04
b10000000 5
#399
14
b00000001 5
#400
b1111111100000000 2
b00000010 5
b1111111100000000 7
#401
b0000000000000000 2
b00000100 5
b0000000000000000 7
#402
b00001000 5
#403
b00010000 5
#404
b00100000 5
#405
b01000000 5
#406
04
b10000000 5
#407
14
b00000001 5
#408
b1111111100000000 2
b00000010 5
b1111111100000000 7
#409
b0000000000000000 2
b00000100 5
b0000000000000000 7
#410
b00001000 5
#411
b00010000 5
#412
b00100000 5
#413
b01000000 5
#414
04
b10000000 5
#415
14
b00000001 5
#416
b1111111100000000 2
b00000010 5
b1111111100000000 7
#417
b0000000000000000 2
b00000100 5
b0000000000000000 7
#418
b00001000 5
#419
b00010000 5
#420
b00100000 5
#421
b01000000 5
#422
04
b10000000 5
#423
14
b00000001 5
#424
b1111111100000000 2
b00000010 5
b1111111100000000 7
#425
b0000000000000000 2
b00000100 5
b0000000000000000 7
#426
b00001000 5
#427
b00010000 5
#428
b00100000 5
#429
b01000000 5
#430
04
b10000000 5
#431
14
b00000001 5
#432
b1111111100000000 2
b00000010 5
b1111111100000000 7
#433
b0000000000000000 2
b00000100 5
b0000000000000000 7
#434
b00001000 5
#435
b00010000 5
#436
b00100000 5
#437
b01000000 5
#438
04
b10000000 5
#439
14
b00000001 5
#440
b1111111100000000 2
b00000010 5
b1111111100000000 7
#441
b0000000000000000 2
b00000100 5
b0000000000000000 7
#442
b00001000 5
#443
b00010000 5
#444
b00100000 5
#445
b01000000 5
#446
04
b10000000 5
#447
14
b00000001 5
#448
b1111111100000000 2
b00000010 5
b1111111100000000 7
#449
b0000000000000000 2
b00000100 5
b0000000000000000 7
#450
b00001000 5
#451
b00010000 5
#452
b00100000 5
#453
b01000000 5
#454
04
b10000000 5
#455
14
b00000001 5
#456
b1111111100000000 2
b00000010 5
b1111111100000000 7
#457
b0000000000000000 2
b00000100 5
b0000000000000000 7
#458
b00001000 5
#459
b00010000 5
#460
b00100000 5
#461
b01000000 5
#462
04
b10000000 5
#463
14
b00000001 5
#464
b1111111100000000 2
b00000010 5
b1111111100000000 7
#465
b0000000000000000 2
b00000100 5
b0000000000000000 7
#466
b00001000 5
#467
b00010000 5
#468
b00100000 5
#469
b01000000 5
#470
04
b10000000 5
#471
14
b00000001 5
#472
b1111111100000000 2
b00000010 5
b1111111100000000 7
#473
b0000000000000000 2
b00000100 5
b0000000000000000 7
#474
b00001000 5
#475
b00010000 5
#476
b00100000 5
#477
b01000000 5
#478
04
b10000000 5
#479
14
b00000001 5
#480
b1111111100000000 2
b00000010 5
b1111111100000000 7
#481
b0000000000000000 2
b00000100 5
b0000000000000000 7
#482
b00001000 5
#483
b00010000 5
#484
b00100000 5
#485
b01000000 5
#486
04
b10000000 5
#487
14
b00000001 5
#488
b1111111100000000 2
b00000010 5
b1111111100000000 7
#489
b0000000000000000 2
b00000100 5
b0000000000000000 7
#490
b00001000 5
#491
b00010000 5
#492
b00100000 5
#493
b01000000 5
#494
04
b10000000 5
#495
14
b00000001 5
#496
b1111111100000000 2
b00000010 5
b1111111100000000 7
#497
b0000000000000000 2
b00000100 5
b0000000000000000 7
#498
b00001000 5
#499
b00010000 5
#500
b00100000 5
#501
b01000000 5
#502
04
b10000000 5
#503
14
b00000001 5
#504
b1111111100000000 2
b00000010 5
b1111111100000000 7
#505
b0000000000000000 2
b00000100 5
b0000000000000000 7
#506
b00001000 5
#507
b00010000 5
#508
b00100000 5
#509
b01000000 5
#510
04
b10000000 5
#511
14
b00000001 5
#512
b1111111100000000 2
b00000010 5
b1111111100000000 7
#513
b0000000000000000 2
b00000100 5
b0000000000000000 7
#514
b00001000 5
#515
b00010000 5
#516
b00100000 5
#517
b01000000 5
#518
04
b10000000 5
#519
14
b00000001 5
#520
b1111111100000000 2
b00000010 5
b1111111100000000 7
#521
b0000000000000000 2
b00000100 5
b0000000000000000 7
#522
b00001000 5
#523
b00010000 5
#524
b00100000 5
#525
b01000000 5
#526
04
b10000000 5
#527
14
b00000001 5
#528
b1111111100000000 2
b00000010 5
b1111111100000000 7
#529
b0000000000000000 2
b00000100 5
b0000000000000000 7
#530
b00001000 5
#531
b00010000 5
#532
b00100000 5
#533
b01000000 5
#534
04
b10000000 5
#535
14
b00000001 5
#536
b1111111100000000 2
b00000010 5
b1111111100000000 7
#537
b0000000000000000 2
b00000100 5
b0000000000000000 7
#538
b00001000 5
#539
b00010000 5
#540
b00100000 5
#541
b01000000 5
#542
04
b10000000 5
#543
14
b00000001 5
#544
b1111111100000000 2
b00000010 5
b1111111100000000 7
#545
b0000000000000000 2
b00000100 5
b0000000000000000 7
#546
b00001000 5
#547
b00010000 5
#548
b00100000 5
#549
b01000000 5
#550
04
b10000000 5
#551
14
b00000001 5
#552
b1111111100000000 2
b00000010 5
b1111111100000000 7
#553
b0000000000000000 2
b00000100 5
b0000000000000000 7
#554
b00001000 5
#555
b00010000 5
#556
b00100000 5
#557
b01000000 5
#558
04
b10000000 5
#559
14
b00000001 5
#560
b1111111100000000 2
b00000010 5
b1111111100000000 7
#561
b0000000000000000 2
b00000100 5
b0000000000000000 7
#562
b00001000 5
#563
b00010000 5
#564
b00100000 5
#565
b01000000 5
#566
04
b10000000 5
#567
14
b00000001 5
#568
b1111111100000000 2
b00000010 5
b1111111100000000 7
#569
b0000000000000000 2
b00000100 5
b0000000000000000 7
#570
b00001000 5
#571
b00010000 5
#572
b00100000 5
#573
b01000000 5
#574
04
b10000000 5
#575
14
b00000001 5
#576
b1111111100000000 2
b00000010 5
b1111111100000000 7
#577
b0000000000000000 2
b00000100 5
b0000000000000000 7
#578
b00001000 5
#579
b00010000 5
#580
b00100000 5
#581
b01000000 5
#582
04
b10000000 5
#583
14
b00000001 5
#584
b1111111100000000 2
b00000010 5
b1111111100000000 7
#585
b0000000000000000 2
b00000100 5
b0000000000000000 7
#586
b00001000 5
#587
b00010000 5
#588
b00100000 5
#589
b01000000 5
#590
04
b10000000 5
#591
14
b00000001 5
#592
b1111111100000000 2
b00000010 5
b1111111100000000 7
#593
b0000000000000000 2
b00000100 5
b0000000000000000 7
#594
b00001000 5
#595
b00010000 5
#596
b00100000 5
#597
b01000000 5
#598
04
b10000000 5
#599
14
b00000001 5
#600
b1111111100000000 2
b00000010 5
b1111111100000000 7
#601
b0000000000000000 2
b00000100 5
b0000000000000000 7
#602
b00001000 5
#603
b00010000 5
#604
b00100000 5
#605
b01000000 5
#606
04
b10000000 5
#607
14
b00000001 5
#608
b1111111100000000 2
b00000010 5
b1111111100000000 7
#609
b0000000000000000 2
b00000100 5
b0000000000000000 7
#610
b00001000 5
#611
b00010000 5
#612
b00100000 5
#613
b01000000 5
#614
04
b10000000 5
#615
14
b00000001 5
#616
b1111111100000000 2
b00000010 5
b1111111100000000 7
#617
b0000000000000000 2
b00000100 5
b0000000000000000 7
#618
b00001000 5
#619
b00010000 5
#620
b00100000 5
#621
b01000000 5
#622
04
b10000000 5
#623
14
b00000001 5
#624
b1111111100000000 2
b00000010 5
b1111111100000000 7
#625
b0000000000000000 2
b00000100 5
b0000000000000000 7
#626
b00001000 5
#627
b00010000 5
#628
b00100000 5
#629
b01000000 5
#630
04
b10000000 5
#631
14
b00000001 5
#632
b1111111100000000 2
b00000010 5
b1111111100000000 7
#633
b0000000000000000 2
b00000100 5
b0000000000000000 7
#634
b00001000 5
#635
b00010000 5
#636
b00100000 5
#637
b01000000 5
#638
04
b10000000 5
#639
14
b00000001 5
#640
b1111111100000000 2
b00000010 5
b1111111100000000 7
#641
b0000000000000000 2
b00000100 5
b0000000000000000 7
#642
b00001000 5
#643
b00010000 5
#644
b00100000 5
#645
b01000000 5
#646
04
b10000000 5
#647
14
b00000001 5
#648
b1111111100000000 2
b00000010 5
b1111111100000000 7
#649
b0000000000000000 2
b00000100 5
b0000000000000000 7
#650
b00001000 5
#651
b00010000 5
#652
b00100000 5
#653
b01000000 5
#654
04
b10000000 5
#655
14
b00000001 5
#656
b1111111100000000 2
b00000010 5
b1111111100000000 7
#657
b0000000000000000 2
b00000100 5
b0000000000000000 7
#658
b00001000 5
#659
b00010000 5
#660
b00100000 5
#661
b01000000 5
#662
04
b10000000 5
#663
14
b00000001 5
#664
b1111111100000000 2
b00000010 5
b1111111100000000 7
#665
b0000000000000000 2
b00000100 5
b0000000000000000 7
#666
b00001000 5
#667
b00010000 5
#668
b00100000 5
#669
b01000000 5
#670
04
b10000000 5
#671
14
b00000001 5
#672
b1111111100000000 2
b00000010 5
b1111111100000000 7
#673
b0000000000000000 2
b00000100 5
b0000000000000000 7
#674
b00001000 5
#675
b00010000 5
#676
b00100000 5
#677
b01000000 5
#678
04
b10000000 5
#679
14
b00000001 5
#680
b1111111100000000 2
b00000010 5
b1111111100000000 7
#681
b0000000000000000 2
b00000100 5
b0000000000000000 7
#682
b00001000 5
#683
b00010000 5
#684
b00100000 5
#685
b01000000 5
#686
04
b10000000 5
#687
14
b00000001 5
#688
b1111111100000000 2
b00000010 5
b1111111100000000 7
#689
b0000000000000000 2
b00000100 5
b0000000000000000 7
#690
b00001000 5
#691
b00010000 5
#692
b00100000 5
#693
b01000000 5
#694
04
b10000000 5
#695
14
b00000001 5
#696
b1111111100000000 2
b00000010 5
b1111111100000000 7
#697
b0000000000000000 2
b00000100 5
b0000000000000000 7
#698
b00001000 5
#699
b00010000 5
#700
b00100000 5
#701
b01000000 5
#702
04
b10000000 5
#703
14
b00000001 5
#704
b1111111100000000 2
b00000010 5
b1111111100000000 7
#705
b0000000000000000 2
b00000100 5
b0000000000000000 7
#706
b00001000 5
#707
b00010000 5
#708
b00100000 5
#709
b01000000 5
#710
04
b10000000 5
#711
14
b00000001 5
#712
b1111111100000000 2
b00000010 5
b1111111100000000 7
#713
b0000000000000000 2
b00000100 5
b0000000000000000 7
#714
b00001000 5
#715
b00010000 5
#716
b00100000 5
#717
b01000000 5
#718
04
b10000000 5
#719
14
b00000001 5
#720
b1111111100000000 2
b00000010 5
b1111111100000000 7
#721
b0000000000000000 2
b00000100 5
b0000000000000000 7
#722
b00001000 5
#723
b00010000 5
#724
b00100000 5
#725
b01000000 5
#726
04
b10000000 5
#727
14
b00000001 5
#728
b1111111100000000 2
b00000010 5
b1111111100000000 7
#729
b0000000000000000 2
b00000100 5
b0000000000000000 7
#730
b00001000 5
#731
b00010000 5
#732
b00100000 5
#733
b01000000 5
#734
04
b10000000 5
#735
14
b00000001 5
#736
b1111111100000000 2
b00000010 5
b1111111100000000 7
#737
b0000000000000000 2
b00000100 5
b0000000000000000 7
#738
b00001000 5
#739
b00010000 5
#740
b00100000 5
#741
b01000000 5
#742
04
b10000000 5
#743
14
b00000001 5
#744
b1111111100000000 2
b00000010 5
b1111111100000000 7
#745
b0000000000000000 2
b00000100 5
b0000000000000000 7
#746
b00001000 5
#747
b00010000 5
#748
b00100000 5
#749
b01000000 5
#750
04
b10000000 5
#751
14
b00000001 5
#752
b1111111100000000 2
b00000010 5
b1111111100000000 7
#753
b0000000000000000 2
b00000100 5
b0000000000000000 7
#754
b00001000 5
#755
b00010000 5
#756
b00100000 5
#757
b01000000 5
#758
04
b10000000 5
#759
14
b00000001 5
#760
b1111111100000000 2
b00000010 5
b1111111100000000 7
#761
b0000000000000000 2
b00000100 5
b0000000000000000 7
#762
b00001000 5
#763
b00010000 5
#764
b00100000 5
#765
b01000000 5
#766
04
b10000000 5
#767
14
b00000001 5
#768
b1111111100000000 2
b00000010 5
b1111111100000000 7
#769
b0000000000000000 2
b00000100 5
b0000000000000000 7
#770
b00001000 5
#771
b00010000 5
#772
b00100000 5
#773
b01000000 5
#774
04
b10000000 5
#775
14
b00000001 5
#776
b1111111100000000 2
b00000010 5
b1111111100000000 7
#777
b0000000000000000 2
b00000100 5
b0000000000000000 7
#778
b00001000 5
#779
b00010000 5
#780
b00100000 5
#781
b01000000 5
#782
04
b10000000 5
#783
14
b00000001 5
#784
b1111111100000000 2
b00000010 5
b1111111100000000 7
#785
b0000000000000000 2
b00000100 5
b0000000000000000 7
#786
b00001000 5
#787
b00010000 5
#788
b00100000 5
#789
b01000000 5
#790
04
b10000000 5
#791
14
b00000001 5
#792
b1111111100000000 2
b00000010 5
b1111111100000000 7
#793
b0000000000000000 2
b00000100 5
b0000000000000000 7
#794
b00001000 5
#795
b00010000 5
#796
b00100000 5
#797
b01000000 5
#798
04
b10000000 5
#799
14
b00000001 5
#800
b1111111100000000 2
b00000010 5
b1111111100000000 7
#801
b0000000000000000 2
b00000100 5
b0000000000000000 7
#802
b00001000 5
#803
b00010000 5
#804
b00100000 5
#805
b01000000 5
#806
04
b10000000 5
#807
14
b00000001 5
#808
b1111111100000000 2
b00000010 5
b1111111100000000 7
#809
b0000000000000000 2
b00000100 5
b0000000000000000 7
#810
b00001000 5
#811
b00010000 5
#812
b00100000 5
#813
b01000000 5
#814
04
b10000000 5
#815
14
b00000001 5
#816
b1111111100000000 2
b00000010 5
b1111111100000000 7
#817
b0000000000000000 2
b00000100 5
b0000000000000000 7
#818
b00001000 5
#819
b00010000 5
#820
b00100000 5
#821
b01000000 5
#822
04
b10000000 5
#823
14
b00000001 5
#824
b1111111100000000 2
b00000010 5
b1111111100000000 7
#825
b0000000000000000 2
b00000100 5
b0000000000000000 7
#826
b00001000 5
#827
b00010000 5
#828
b00100000 5
#829
b01000000 5
#830
04
b10000000 5
#831
14
b00000001 5
#832
b1111111100000000 2
b00000010 5
b1111111100000000 7
#833
b0000000000000000 2
b00000100 5
b0000000000000000 7
#834
b00001000 5
#835
b00010000 5
#836
b00100000 5
#837
b01000000 5
#838
04
b10000000 5
#839
14
b00000001 5
#840
b1111111100000000 2
b00000010 5
b1111111100000000 7
#841
b0000000000000000 2
b00000100 5
b0000000000000000 7
#842
b00001000 5
#843
b00010000 5
#844
b00100000 5
#845
b01000000 5
#846
04
b10000000 5
#847
14
b00000001 5
#848
b1111111100000000 2
b00000010 5
b1111111100000000 7
#849
b0000000000000000 2
b00000100 5
b0000000000000000 7
#850
b00001000 5
#851
b00010000 5
#852
b00100000 5
#853
b01000000 5
#854
04
b10000000 5
#855
14
b00000001 5
#856
b1111111100000000 2
b00000010 5
b1111111100000000 7
#857
b0000000000000000 2
b00000100 5
b0000000000000000 7
#858
b00001000 5
#859
b00010000 5
#860
b00100000 5
#861
b01000000 5
#862
04
b10000000 5
#863
14
b00000001 5
#864
b1111111100000000 2
b00000010 5
b1111111100000000 7
#865
b0000000000000000 2
b00000100 5
b0000000000000000 7
#866
b00001000 5
#867
b00010000 5
#868
b00100000 5
#869
b01000000 5
#870
04
b10000000 5
#871
14
b00000001 5
#872
b1111111100000000 2
b00000010 5
b1111111100000000 7
#873
b0000000000000000 2
b00000100 5
b0000000000000000 7
#874
b00001000 5
#875
b00010000 5
#876
b00100000 5
#877
b01000000 5
#878
04
b10000000 5
#879
14
b00000001 5
#880
b1111111100000000 2
b00000010 5
b1111111100000000 7
#881
b0000000000000000 2
b00000100 5
b0000000000000000 7
#882
b00001000 5
#883
b00010000 5
#884
b00100000 5
#885
b01000000 5
#886
04
b10000000 5
#887
14
b00000001 5
#888
b1111111100000000 2
b00000010 5
b1111111100000000 7
#889
b0000000000000000 2
b00000100 5
b0000000000000000 7
#890
b00001000 5
#891
b00010000 5
#892
b00100000 5
#893
b01000000 5
#894
04
b10000000 5
#895
14
b00000001 5
#896
b1111111100000000 2
b00000010 5
b1111111100000000 7
#897
b0000000000000000 2
b00000100 5
b0000000000000000 7
#898
b00001000 5
#899
b00010000 5
#900
b00100000 5
#901
b01000000 5
#902
04
b10000000 5
#903
14
b00000001 5
#904
b1111111100000000 2
b00000010 5
b1111111100000000 7
#905
b0000000000000000 2
b00000100 5
b0000000000000000 7
#906
b00001000 5
#907
b00010000 5
#908
b00100000 5
#909
b01000000 5
#910
04
b10000000 5
#911
14
b00000001 5
#912
b1111111100000000 2
b00000010 5
b1111111100000000 7
#913
b0000000000000000 2
b00000100 5
b0000000000000000 7
#914
b00001000 5
#915
b00010000 5
#916
b00100000 5
#917
b01000000 5
#918
04
b10000000 5
#919
14
b00000001 5
#920
b1111111100000000 2
b00000010 5
b1111111100000000 7
#921
b0000000000000000 2
b00000100 5
b0000000000000000 7
#922
b00001000 5
#923
b00010000 5
#924
b00100000 5
#925
b01000000 5
#926
04
b10000000 5
#927
14
b00000001 5
#928
b1111111100000000 2
b00000010 5
b1111111100000000 7
#929
b0000000000000000 2
b00000100 5
b0000000000000000 7
#930
b00001000 5
#931
b00010000 5
#932
b00100000 5
#933
b01000000 5
#934
04
b10000000 5
#935
14
b00000001 5
